(export (version D)
  (design
    (source /home/tingo/doc/Oric-1/projects/oric_video_out/Oric-1_video_output/Oric-1_video_output.sch)
    (date "Tue 22 Jan 2019 04:57:44 PM CET")
    (tool "Eeschema 5.0.2+dfsg1-1~bpo9+1")
    (sheet (number 1) (name /) (tstamps /)
      (title_block
        (title)
        (company)
        (rev)
        (date)
        (source Oric-1_video_output.sch)
        (comment (number 1) (value ""))
        (comment (number 2) (value ""))
        (comment (number 3) (value ""))
        (comment (number 4) (value "")))))
  (components
    (comp (ref U1)
      (value 74HCT244)
      (footprint Package_DIP:DIP-20_W7.62mm)
      (datasheet http://www.nxp.com/documents/data_sheet/74HC_HCT244.pdf)
      (libsource (lib 74xx) (part 74HCT244) (description "8-bit Buffer/Line Driver 3-state"))
      (sheetpath (names /) (tstamps /))
      (tstamp 5C45DA31))
    (comp (ref Q4)
      (value BC548)
      (footprint Package_TO_SOT_THT:TO-92_Inline)
      (datasheet http://www.fairchildsemi.com/ds/BC/BC547.pdf)
      (libsource (lib Transistor_BJT) (part BC548) (description "0.1A Ic, 30V Vce, Small Signal NPN Transistor, TO-92"))
      (sheetpath (names /) (tstamps /))
      (tstamp 5C45DB83))
    (comp (ref Q3)
      (value BC548)
      (footprint Package_TO_SOT_THT:TO-92_Inline)
      (datasheet http://www.fairchildsemi.com/ds/BC/BC547.pdf)
      (libsource (lib Transistor_BJT) (part BC548) (description "0.1A Ic, 30V Vce, Small Signal NPN Transistor, TO-92"))
      (sheetpath (names /) (tstamps /))
      (tstamp 5C45DC1B))
    (comp (ref Q2)
      (value BC548)
      (footprint Package_TO_SOT_THT:TO-92_Inline)
      (datasheet http://www.fairchildsemi.com/ds/BC/BC547.pdf)
      (libsource (lib Transistor_BJT) (part BC548) (description "0.1A Ic, 30V Vce, Small Signal NPN Transistor, TO-92"))
      (sheetpath (names /) (tstamps /))
      (tstamp 5C45DC6E))
    (comp (ref Q1)
      (value BC548)
      (footprint Package_TO_SOT_THT:TO-92_Inline)
      (datasheet http://www.fairchildsemi.com/ds/BC/BC547.pdf)
      (libsource (lib Transistor_BJT) (part BC548) (description "0.1A Ic, 30V Vce, Small Signal NPN Transistor, TO-92"))
      (sheetpath (names /) (tstamps /))
      (tstamp 5C45DCF4))
    (comp (ref C1)
      (value "10 mikroF")
      (footprint Capacitor_THT:C_Axial_L3.8mm_D2.6mm_P7.50mm_Horizontal)
      (datasheet ~)
      (libsource (lib Device) (part C) (description "Unpolarized capacitor"))
      (sheetpath (names /) (tstamps /))
      (tstamp 5C45DE46))
    (comp (ref R1)
      (value 100R)
      (footprint Resistor_THT:R_Axial_DIN0207_L6.3mm_D2.5mm_P2.54mm_Vertical)
      (datasheet ~)
      (libsource (lib Device) (part R) (description Resistor))
      (sheetpath (names /) (tstamps /))
      (tstamp 5C45DF6F))
    (comp (ref R2)
      (value 100R)
      (footprint Resistor_THT:R_Axial_DIN0207_L6.3mm_D2.5mm_P2.54mm_Vertical)
      (datasheet ~)
      (libsource (lib Device) (part R) (description Resistor))
      (sheetpath (names /) (tstamps /))
      (tstamp 5C45DFDD))
    (comp (ref R3)
      (value 100R)
      (footprint Resistor_THT:R_Axial_DIN0207_L6.3mm_D2.5mm_P2.54mm_Vertical)
      (datasheet ~)
      (libsource (lib Device) (part R) (description Resistor))
      (sheetpath (names /) (tstamps /))
      (tstamp 5C45E03F))
    (comp (ref R4)
      (value 100R)
      (footprint Resistor_THT:R_Axial_DIN0207_L6.3mm_D2.5mm_P2.54mm_Vertical)
      (datasheet ~)
      (libsource (lib Device) (part R) (description Resistor))
      (sheetpath (names /) (tstamps /))
      (tstamp 5C45E094))
    (comp (ref J1)
      (value Conn_01x05_Male)
      (footprint Connector_PinHeader_2.54mm:PinHeader_1x05_P2.54mm_Vertical)
      (datasheet ~)
      (libsource (lib Connector) (part Conn_01x05_Male) (description "Generic connector, single row, 01x05, script generated (kicad-library-utils/schlib/autogen/connector/)"))
      (sheetpath (names /) (tstamps /))
      (tstamp 5C45F119))
    (comp (ref R6)
      (value 75R)
      (footprint Resistor_THT:R_Axial_DIN0207_L6.3mm_D2.5mm_P2.54mm_Vertical)
      (datasheet ~)
      (libsource (lib Device) (part R) (description Resistor))
      (sheetpath (names /) (tstamps /))
      (tstamp 5C461DD3))
    (comp (ref R7)
      (value 75R)
      (footprint Resistor_THT:R_Axial_DIN0207_L6.3mm_D2.5mm_P2.54mm_Vertical)
      (datasheet ~)
      (libsource (lib Device) (part R) (description Resistor))
      (sheetpath (names /) (tstamps /))
      (tstamp 5C461DFD))
    (comp (ref R10)
      (value 68R)
      (footprint Resistor_THT:R_Axial_DIN0207_L6.3mm_D2.5mm_P2.54mm_Vertical)
      (datasheet ~)
      (libsource (lib Device) (part R) (description Resistor))
      (sheetpath (names /) (tstamps /))
      (tstamp 5C4710CF))
    (comp (ref R11)
      (value 68R)
      (footprint Resistor_THT:R_Axial_DIN0207_L6.3mm_D2.5mm_P2.54mm_Vertical)
      (datasheet ~)
      (libsource (lib Device) (part R) (description Resistor))
      (sheetpath (names /) (tstamps /))
      (tstamp 5C471254))
    (comp (ref R12)
      (value 68R)
      (footprint Resistor_THT:R_Axial_DIN0207_L6.3mm_D2.5mm_P2.54mm_Vertical)
      (datasheet ~)
      (libsource (lib Device) (part R) (description Resistor))
      (sheetpath (names /) (tstamps /))
      (tstamp 5C471294))
    (comp (ref R13)
      (value 68R)
      (footprint Resistor_THT:R_Axial_DIN0207_L6.3mm_D2.5mm_P2.54mm_Vertical)
      (datasheet ~)
      (libsource (lib Device) (part R) (description Resistor))
      (sheetpath (names /) (tstamps /))
      (tstamp 5C4712D6))
    (comp (ref J2)
      (value SCART-F)
      (footprint w_conn_av:SCART)
      (datasheet " ~")
      (libsource (lib Connector) (part SCART-F) (description "Prise Peritel"))
      (sheetpath (names /) (tstamps /))
      (tstamp 5C4751FC))
    (comp (ref R9)
      (value 68R)
      (footprint Resistor_THT:R_Axial_DIN0207_L6.3mm_D2.5mm_P2.54mm_Vertical)
      (datasheet ~)
      (libsource (lib Device) (part R) (description Resistor))
      (sheetpath (names /) (tstamps /))
      (tstamp 5C4853D1))
    (comp (ref R8)
      (value 75R)
      (footprint Resistor_THT:R_Axial_DIN0207_L6.3mm_D2.5mm_P2.54mm_Vertical)
      (datasheet ~)
      (libsource (lib Device) (part R) (description Resistor))
      (sheetpath (names /) (tstamps /))
      (tstamp 5C461E29))
    (comp (ref R5)
      (value 75R)
      (footprint Resistor_THT:R_Axial_DIN0207_L6.3mm_D2.5mm_P2.54mm_Vertical)
      (datasheet ~)
      (libsource (lib Device) (part R) (description Resistor))
      (sheetpath (names /) (tstamps /))
      (tstamp 5C461CE5))
    (comp (ref JP1)
      (value Jumper_NO_Small)
      (footprint Jumper:SolderJumper-2_P1.3mm_Open_Pad1.0x1.5mm)
      (datasheet ~)
      (libsource (lib Device) (part Jumper_NO_Small) (description "Jumper, normally open, small symbol"))
      (sheetpath (names /) (tstamps /))
      (tstamp 5C48854D)))
  (libparts
    (libpart (lib 74xx) (part 74HC244)
      (aliases
        (alias 74HCT244))
      (description "8-bit Buffer/Line Driver 3-state")
      (docs http://www.nxp.com/documents/data_sheet/74HC_HCT244.pdf)
      (footprints
        (fp TSSOP*4.4x6.5mm*P0.65mm*)
        (fp SSOP*4.4x6.5mm*P0.65mm*))
      (fields
        (field (name Reference) U)
        (field (name Value) 74HC244))
      (pins
        (pin (num 1) (name 1OE) (type input))
        (pin (num 2) (name 1A0) (type input))
        (pin (num 3) (name 2Y0) (type output))
        (pin (num 4) (name 1A1) (type input))
        (pin (num 5) (name 2Y1) (type output))
        (pin (num 6) (name 1A2) (type input))
        (pin (num 7) (name 2Y2) (type output))
        (pin (num 8) (name 1A3) (type input))
        (pin (num 9) (name 2Y3) (type output))
        (pin (num 10) (name GND) (type power_in))
        (pin (num 11) (name 2A3) (type input))
        (pin (num 12) (name 1Y3) (type output))
        (pin (num 13) (name 2A2) (type input))
        (pin (num 14) (name 1Y2) (type output))
        (pin (num 15) (name 2A1) (type input))
        (pin (num 16) (name 1Y1) (type output))
        (pin (num 17) (name 2A0) (type input))
        (pin (num 18) (name 1Y0) (type output))
        (pin (num 19) (name 2OE) (type input))
        (pin (num 20) (name VCC) (type power_in))))
    (libpart (lib Connector) (part Conn_01x05_Male)
      (description "Generic connector, single row, 01x05, script generated (kicad-library-utils/schlib/autogen/connector/)")
      (docs ~)
      (footprints
        (fp Connector*:*_1x??_*))
      (fields
        (field (name Reference) J)
        (field (name Value) Conn_01x05_Male))
      (pins
        (pin (num 1) (name Pin_1) (type passive))
        (pin (num 2) (name Pin_2) (type passive))
        (pin (num 3) (name Pin_3) (type passive))
        (pin (num 4) (name Pin_4) (type passive))
        (pin (num 5) (name Pin_5) (type passive))))
    (libpart (lib Connector) (part SCART-F)
      (description "Prise Peritel")
      (docs " ~")
      (fields
        (field (name Reference) J)
        (field (name Value) SCART-F))
      (pins
        (pin (num 1) (name P1) (type passive))
        (pin (num 2) (name P2) (type passive))
        (pin (num 3) (name P3) (type passive))
        (pin (num 4) (name P4) (type passive))
        (pin (num 5) (name P5) (type passive))
        (pin (num 6) (name P6) (type passive))
        (pin (num 7) (name P7) (type passive))
        (pin (num 8) (name P8) (type passive))
        (pin (num 9) (name P9) (type passive))
        (pin (num 10) (name P10) (type passive))
        (pin (num 11) (name P11) (type passive))
        (pin (num 12) (name P12) (type passive))
        (pin (num 13) (name P13) (type passive))
        (pin (num 14) (name P14) (type passive))
        (pin (num 15) (name P15) (type passive))
        (pin (num 16) (name P16) (type passive))
        (pin (num 17) (name P17) (type passive))
        (pin (num 18) (name P18) (type passive))
        (pin (num 19) (name P19) (type passive))
        (pin (num 20) (name P20) (type passive))
        (pin (num 21) (name P21) (type passive))))
    (libpart (lib Device) (part C)
      (description "Unpolarized capacitor")
      (docs ~)
      (footprints
        (fp C_*))
      (fields
        (field (name Reference) C)
        (field (name Value) C))
      (pins
        (pin (num 1) (name ~) (type passive))
        (pin (num 2) (name ~) (type passive))))
    (libpart (lib Device) (part Jumper_NO_Small)
      (description "Jumper, normally open, small symbol")
      (docs ~)
      (fields
        (field (name Reference) JP)
        (field (name Value) Jumper_NO_Small))
      (pins
        (pin (num 1) (name 1) (type passive))
        (pin (num 2) (name 2) (type passive))))
    (libpart (lib Device) (part R)
      (description Resistor)
      (docs ~)
      (footprints
        (fp R_*))
      (fields
        (field (name Reference) R)
        (field (name Value) R))
      (pins
        (pin (num 1) (name ~) (type passive))
        (pin (num 2) (name ~) (type passive))))
    (libpart (lib Transistor_BJT) (part BC547)
      (aliases
        (alias BC546)
        (alias BC548)
        (alias BC549)
        (alias BC550)
        (alias BC337)
        (alias BC338))
      (description "0.1A Ic, 45V Vce, Small Signal NPN Transistor, TO-92")
      (docs http://www.fairchildsemi.com/ds/BC/BC547.pdf)
      (footprints
        (fp TO?92*))
      (fields
        (field (name Reference) Q)
        (field (name Value) BC547)
        (field (name Footprint) Package_TO_SOT_THT:TO-92_Inline))
      (pins
        (pin (num 1) (name C) (type passive))
        (pin (num 2) (name B) (type input))
        (pin (num 3) (name E) (type passive)))))
  (libraries
    (library (logical 74xx)
      (uri /usr/share/kicad/library/74xx.lib))
    (library (logical Connector)
      (uri /usr/share/kicad/library/Connector.lib))
    (library (logical Device)
      (uri /usr/share/kicad/library/Device.lib))
    (library (logical Transistor_BJT)
      (uri /usr/share/kicad/library/Transistor_BJT.lib)))
  (nets
    (net (code 1) (name /Red)
      (node (ref J2) (pin 15))
      (node (ref R10) (pin 1)))
    (net (code 2) (name /Green)
      (node (ref J2) (pin 11))
      (node (ref R11) (pin 1)))
    (net (code 3) (name /Blue)
      (node (ref R12) (pin 1))
      (node (ref J2) (pin 7)))
    (net (code 4) (name /Sync)
      (node (ref R13) (pin 1))
      (node (ref J2) (pin 20)))
    (net (code 5) (name /Blanking)
      (node (ref J2) (pin 18))
      (node (ref R9) (pin 1)))
    (net (code 6) (name "Net-(U1-Pad3)")
      (node (ref U1) (pin 3)))
    (net (code 7) (name "Net-(U1-Pad5)")
      (node (ref U1) (pin 5)))
    (net (code 8) (name "Net-(J2-Pad3)")
      (node (ref J2) (pin 3)))
    (net (code 9) (name "Net-(Q1-Pad3)")
      (node (ref Q1) (pin 3))
      (node (ref R13) (pin 2)))
    (net (code 10) (name "Net-(J2-Pad1)")
      (node (ref J2) (pin 1)))
    (net (code 11) (name "Net-(J2-Pad10)")
      (node (ref J2) (pin 10)))
    (net (code 12) (name "Net-(J2-Pad12)")
      (node (ref J2) (pin 12)))
    (net (code 13) (name "Net-(J2-Pad14)")
      (node (ref J2) (pin 14)))
    (net (code 14) (name "Net-(J2-Pad16)")
      (node (ref J2) (pin 16)))
    (net (code 15) (name "Net-(J2-Pad19)")
      (node (ref J2) (pin 19)))
    (net (code 16) (name "Net-(J2-Pad2)")
      (node (ref J2) (pin 2)))
    (net (code 17) (name "Net-(J2-Pad21)")
      (node (ref J2) (pin 21)))
    (net (code 18) (name "Net-(U1-Pad7)")
      (node (ref U1) (pin 7)))
    (net (code 19) (name "Net-(J2-Pad4)")
      (node (ref J2) (pin 4)))
    (net (code 20) (name "Net-(J2-Pad6)")
      (node (ref J2) (pin 6)))
    (net (code 21) (name VCC)
      (node (ref C1) (pin 1))
      (node (ref R1) (pin 1))
      (node (ref U1) (pin 20))
      (node (ref Q1) (pin 1))
      (node (ref Q2) (pin 1))
      (node (ref Q3) (pin 1))
      (node (ref Q4) (pin 2))
      (node (ref Q4) (pin 1))
      (node (ref R8) (pin 1))
      (node (ref JP1) (pin 1))
      (node (ref R9) (pin 2)))
    (net (code 22) (name "Net-(J2-Pad8)")
      (node (ref J2) (pin 8))
      (node (ref JP1) (pin 2)))
    (net (code 23) (name "Net-(U1-Pad9)")
      (node (ref U1) (pin 9)))
    (net (code 24) (name "Net-(Q2-Pad3)")
      (node (ref Q2) (pin 3))
      (node (ref R12) (pin 2)))
    (net (code 25) (name GND)
      (node (ref U1) (pin 10))
      (node (ref J2) (pin 9))
      (node (ref R8) (pin 2))
      (node (ref R5) (pin 2))
      (node (ref U1) (pin 15))
      (node (ref U1) (pin 11))
      (node (ref U1) (pin 19))
      (node (ref U1) (pin 17))
      (node (ref U1) (pin 13))
      (node (ref R7) (pin 2))
      (node (ref R6) (pin 2))
      (node (ref J2) (pin 13))
      (node (ref J2) (pin 17))
      (node (ref J2) (pin 5))
      (node (ref C1) (pin 2)))
    (net (code 26) (name "Net-(R1-Pad2)")
      (node (ref U1) (pin 18))
      (node (ref R1) (pin 2)))
    (net (code 27) (name "Net-(R2-Pad2)")
      (node (ref U1) (pin 16))
      (node (ref R2) (pin 2)))
    (net (code 28) (name "Net-(R3-Pad2)")
      (node (ref U1) (pin 14))
      (node (ref R3) (pin 2)))
    (net (code 29) (name "Net-(R4-Pad2)")
      (node (ref R4) (pin 2))
      (node (ref U1) (pin 12)))
    (net (code 30) (name "Net-(Q1-Pad2)")
      (node (ref R5) (pin 1))
      (node (ref Q1) (pin 2))
      (node (ref R4) (pin 1)))
    (net (code 31) (name "Net-(Q4-Pad3)")
      (node (ref R10) (pin 2))
      (node (ref Q4) (pin 3)))
    (net (code 32) (name "Net-(Q3-Pad3)")
      (node (ref Q3) (pin 3))
      (node (ref R11) (pin 2)))
    (net (code 33) (name "Net-(Q2-Pad2)")
      (node (ref R6) (pin 1))
      (node (ref R3) (pin 1))
      (node (ref Q2) (pin 2)))
    (net (code 34) (name "Net-(J1-Pad1)")
      (node (ref U1) (pin 2))
      (node (ref J1) (pin 1)))
    (net (code 35) (name "Net-(J1-Pad2)")
      (node (ref J1) (pin 2))
      (node (ref U1) (pin 4)))
    (net (code 36) (name "Net-(J1-Pad3)")
      (node (ref J1) (pin 3))
      (node (ref U1) (pin 6)))
    (net (code 37) (name "Net-(J1-Pad4)")
      (node (ref U1) (pin 8))
      (node (ref J1) (pin 4)))
    (net (code 38) (name "Net-(J1-Pad5)")
      (node (ref U1) (pin 1))
      (node (ref J1) (pin 5)))
    (net (code 39) (name "Net-(Q3-Pad2)")
      (node (ref R2) (pin 1))
      (node (ref Q3) (pin 2))
      (node (ref R7) (pin 1)))))