"Id";"Designator";"Package";"Quantity";"Designation";"Supplier and ref";
1;"Q4,Q3,Q2,Q1";"TO-92_Inline";4;"BC548";;;
2;"R23";"R_Axial_DIN0207_L6.3mm_D2.5mm_P7.62mm_Horizontal";1;"zero";;;
3;"R3,R4,R2,R1";"R_Axial_DIN0207_L6.3mm_D2.5mm_P7.62mm_Horizontal";4;"100R";;;
4;"J1";"PinHeader_1x05_P2.54mm_Vertical";1;"Conn_01x05_Male";;;
5;"J14";"PinHeader_1x02_P2.54mm_Vertical";1;"Power";;;
6;"J13";"PinHeader_1x02_P2.54mm_Vertical";1;"Aspect Ratio";;;
7;"R13,R12,R11,R10,R9";"R_Axial_DIN0207_L6.3mm_D2.5mm_P7.62mm_Horizontal";5;"68R";;;
8;"R8,R7,R5,R6";"R_Axial_DIN0207_L6.3mm_D2.5mm_P7.62mm_Horizontal";4;"75R";;;
9;"C1";"C_Axial_L3.8mm_D2.6mm_P7.50mm_Horizontal";1;"10 uF";;;
10;"U1";"DIP-20_W7.62mm";1;"74HCT244";;;
11;"J2";"SCART";1;"SCART-F";;;
12;"REF**,REF**,REF**,REF**";"MountingHole_3mm";4;"MountingHole_3mm";;;
