EESchema Schematic File Version 4
LIBS:Oric-1_video_output-cache
EELAYER 26 0
EELAYER END
$Descr A4 11693 8268
encoding utf-8
Sheet 1 1
Title "RGB video to SCART buffer"
Date "2019-01-21"
Rev ""
Comp "Torfinn's Retro Projects"
Comment1 ""
Comment2 ""
Comment3 ""
Comment4 ""
$EndDescr
$Comp
L 74xx:74HCT244 U1
U 1 1 5C45DA31
P 3200 3600
F 0 "U1" H 3200 4578 50  0000 C CNN
F 1 "74HCT244" H 3200 4487 50  0000 C CNN
F 2 "Package_DIP:DIP-20_W7.62mm" H 3200 3600 50  0001 C CNN
F 3 "http://www.nxp.com/documents/data_sheet/74HC_HCT244.pdf" H 3200 3600 50  0001 C CNN
	1    3200 3600
	1    0    0    -1  
$EndComp
$Comp
L Transistor_BJT:BC548 Q3
U 1 1 5C45DC1B
P 5525 3400
F 0 "Q3" H 5716 3446 50  0000 L CNN
F 1 "BC548" H 5716 3355 50  0000 L CNN
F 2 "modified footprints:TO-92_Inline" H 5725 3325 50  0001 L CIN
F 3 "http://www.fairchildsemi.com/ds/BC/BC547.pdf" H 5525 3400 50  0001 L CNN
	1    5525 3400
	1    0    0    -1  
$EndComp
$Comp
L Transistor_BJT:BC548 Q2
U 1 1 5C45DC6E
P 5265 3750
F 0 "Q2" H 5456 3796 50  0000 L CNN
F 1 "BC548" H 5456 3705 50  0000 L CNN
F 2 "modified footprints:TO-92_Inline" H 5465 3675 50  0001 L CIN
F 3 "http://www.fairchildsemi.com/ds/BC/BC547.pdf" H 5265 3750 50  0001 L CNN
	1    5265 3750
	1    0    0    -1  
$EndComp
$Comp
L Transistor_BJT:BC548 Q1
U 1 1 5C45DCF4
P 5070 4250
F 0 "Q1" H 5261 4296 50  0000 L CNN
F 1 "BC548" H 5261 4205 50  0000 L CNN
F 2 "modified footprints:TO-92_Inline" H 5270 4175 50  0001 L CIN
F 3 "http://www.fairchildsemi.com/ds/BC/BC547.pdf" H 5070 4250 50  0001 L CNN
	1    5070 4250
	1    0    0    -1  
$EndComp
$Comp
L Device:C C1
U 1 1 5C45DE46
P 2150 2750
F 0 "C1" H 2265 2796 50  0000 L CNN
F 1 "10 uF" H 2265 2705 50  0000 L CNN
F 2 "Capacitor_THT:C_Axial_L3.8mm_D2.6mm_P7.50mm_Horizontal" H 2188 2600 50  0001 C CNN
F 3 "~" H 2150 2750 50  0001 C CNN
	1    2150 2750
	1    0    0    -1  
$EndComp
$Comp
L Device:R R1
U 1 1 5C45DF6F
P 4000 3100
F 0 "R1" V 3950 3250 50  0000 C CNN
F 1 "100R" V 4000 3100 50  0000 C CNN
F 2 "Resistor_THT:R_Axial_DIN0207_L6.3mm_D2.5mm_P7.62mm_Horizontal" V 3930 3100 50  0001 C CNN
F 3 "~" H 4000 3100 50  0001 C CNN
	1    4000 3100
	0    1    1    0   
$EndComp
$Comp
L Device:R R2
U 1 1 5C45DFDD
P 4000 3200
F 0 "R2" V 3950 3350 50  0000 C CNN
F 1 "100R" V 4000 3200 50  0000 C CNN
F 2 "Resistor_THT:R_Axial_DIN0207_L6.3mm_D2.5mm_P7.62mm_Horizontal" V 3930 3200 50  0001 C CNN
F 3 "~" H 4000 3200 50  0001 C CNN
	1    4000 3200
	0    1    1    0   
$EndComp
$Comp
L Device:R R3
U 1 1 5C45E03F
P 4000 3300
F 0 "R3" V 3950 3450 50  0000 C CNN
F 1 "100R" V 4000 3300 50  0000 C CNN
F 2 "Resistor_THT:R_Axial_DIN0207_L6.3mm_D2.5mm_P7.62mm_Horizontal" V 3930 3300 50  0001 C CNN
F 3 "~" H 4000 3300 50  0001 C CNN
	1    4000 3300
	0    1    1    0   
$EndComp
$Comp
L Device:R R4
U 1 1 5C45E094
P 4000 3400
F 0 "R4" V 3950 3550 50  0000 C CNN
F 1 "100R" V 4000 3400 50  0000 C CNN
F 2 "Resistor_THT:R_Axial_DIN0207_L6.3mm_D2.5mm_P7.62mm_Horizontal" V 3930 3400 50  0001 C CNN
F 3 "~" H 4000 3400 50  0001 C CNN
	1    4000 3400
	0    1    1    0   
$EndComp
Wire Wire Line
	3700 3100 3850 3100
Wire Wire Line
	3700 3200 3850 3200
Wire Wire Line
	3700 3300 3850 3300
Wire Wire Line
	3700 3400 3850 3400
Wire Wire Line
	2600 4755 2600 4100
Wire Wire Line
	2600 4100 2700 4100
Wire Wire Line
	2600 4100 2600 3800
Wire Wire Line
	2600 3800 2700 3800
Connection ~ 2600 4100
Wire Wire Line
	2600 3800 2600 3700
Wire Wire Line
	2600 3700 2700 3700
Connection ~ 2600 3800
Wire Wire Line
	2600 3700 2600 3600
Wire Wire Line
	2600 3600 2700 3600
Connection ~ 2600 3700
Wire Wire Line
	2600 3600 2600 3500
Wire Wire Line
	2600 3500 2700 3500
Connection ~ 2600 3600
$Comp
L power:VCC #PWR01
U 1 1 5C45E977
P 3200 2350
F 0 "#PWR01" H 3200 2200 50  0001 C CNN
F 1 "VCC" H 3217 2523 50  0000 C CNN
F 2 "" H 3200 2350 50  0001 C CNN
F 3 "" H 3200 2350 50  0001 C CNN
	1    3200 2350
	1    0    0    -1  
$EndComp
Connection ~ 3200 2600
Wire Wire Line
	2150 2900 2150 4000
$Comp
L Connector:Conn_01x05_Male J1
U 1 1 5C45F119
P 1300 3300
F 0 "J1" H 1406 3678 50  0000 C CNN
F 1 "Conn_01x05_Male" H 1406 3587 50  0000 C CNN
F 2 "Connector_PinHeader_2.54mm:PinHeader_1x05_P2.54mm_Vertical" H 1300 3300 50  0001 C CNN
F 3 "~" H 1300 3300 50  0001 C CNN
	1    1300 3300
	1    0    0    -1  
$EndComp
Wire Wire Line
	1500 3100 2700 3100
Wire Wire Line
	1500 3200 2700 3200
Wire Wire Line
	1500 3300 2700 3300
Wire Wire Line
	1500 3400 2700 3400
Wire Wire Line
	1500 3500 1650 3500
Wire Wire Line
	1650 3500 1650 4000
Wire Wire Line
	1650 4000 2150 4000
Wire Wire Line
	2600 4755 2150 4755
$Comp
L Device:R R6
U 1 1 5C461DD3
P 4360 4550
F 0 "R6" H 4360 4700 50  0000 L CNN
F 1 "75R" V 4360 4500 50  0000 L CNN
F 2 "Resistor_THT:R_Axial_DIN0207_L6.3mm_D2.5mm_P7.62mm_Horizontal" V 4290 4550 50  0001 C CNN
F 3 "~" H 4360 4550 50  0001 C CNN
	1    4360 4550
	1    0    0    -1  
$EndComp
$Comp
L Device:R R7
U 1 1 5C461DFD
P 4500 4550
F 0 "R7" H 4500 4700 50  0000 L CNN
F 1 "75R" V 4500 4500 50  0000 L CNN
F 2 "Resistor_THT:R_Axial_DIN0207_L6.3mm_D2.5mm_P7.62mm_Horizontal" V 4430 4550 50  0001 C CNN
F 3 "~" H 4500 4550 50  0001 C CNN
	1    4500 4550
	1    0    0    -1  
$EndComp
Wire Wire Line
	4360 3300 4150 3300
Wire Wire Line
	4500 3200 4150 3200
Wire Wire Line
	5325 3400 5100 3400
Wire Wire Line
	5100 3400 5100 3200
Connection ~ 4500 3200
Wire Wire Line
	5065 3750 4850 3750
Wire Wire Line
	4850 3750 4850 3300
Wire Wire Line
	4850 3300 4360 3300
Connection ~ 4360 3300
$Comp
L Device:R R10
U 1 1 5C4710CF
P 6390 3300
F 0 "R10" V 6290 3450 50  0000 C CNN
F 1 "68R" V 6390 3300 50  0000 C CNN
F 2 "Resistor_THT:R_Axial_DIN0207_L6.3mm_D2.5mm_P7.62mm_Horizontal" V 6320 3300 50  0001 C CNN
F 3 "~" H 6390 3300 50  0001 C CNN
	1    6390 3300
	0    1    1    0   
$EndComp
$Comp
L Device:R R12
U 1 1 5C471294
P 6300 3950
F 0 "R12" V 6200 4100 50  0000 C CNN
F 1 "68R" V 6300 3950 50  0000 C CNN
F 2 "Resistor_THT:R_Axial_DIN0207_L6.3mm_D2.5mm_P7.62mm_Horizontal" V 6230 3950 50  0001 C CNN
F 3 "~" H 6300 3950 50  0001 C CNN
	1    6300 3950
	0    1    1    0   
$EndComp
$Comp
L Device:R R13
U 1 1 5C4712D6
P 6300 4450
F 0 "R13" V 6200 4600 50  0000 C CNN
F 1 "68R" V 6300 4450 50  0000 C CNN
F 2 "Resistor_THT:R_Axial_DIN0207_L6.3mm_D2.5mm_P7.62mm_Horizontal" V 6230 4450 50  0001 C CNN
F 3 "~" H 6300 4450 50  0001 C CNN
	1    6300 4450
	0    1    1    0   
$EndComp
Wire Wire Line
	6150 4450 5170 4450
Wire Wire Line
	6540 3300 7100 3300
Wire Wire Line
	7100 3750 9255 3755
Wire Wire Line
	7000 3600 7000 4150
Wire Wire Line
	7000 4150 9255 4155
Wire Wire Line
	6450 3950 6900 3950
Wire Wire Line
	6900 3950 6900 4550
Wire Wire Line
	6900 4550 9255 4555
Wire Wire Line
	6800 4350 6800 2650
Wire Wire Line
	6800 2650 10495 2650
Wire Wire Line
	10495 2650 10495 3250
Wire Wire Line
	10495 3250 10455 3255
Wire Wire Line
	7050 4350 9255 4355
Wire Wire Line
	7050 4350 7050 3950
Wire Wire Line
	7050 3950 9255 3955
Connection ~ 7050 4350
Wire Wire Line
	9255 3555 7050 3550
Wire Wire Line
	7050 3550 7050 3950
Connection ~ 7050 3950
$Comp
L Device:R R9
U 1 1 5C4853D1
P 6300 2600
F 0 "R9" V 6200 2750 50  0000 C CNN
F 1 "68R" V 6300 2600 50  0000 C CNN
F 2 "Resistor_THT:R_Axial_DIN0207_L6.3mm_D2.5mm_P7.62mm_Horizontal" V 6230 2600 50  0001 C CNN
F 3 "~" H 6300 2600 50  0001 C CNN
	1    6300 2600
	0    1    1    0   
$EndComp
Wire Wire Line
	6450 2600 10550 2600
Text Notes 1050 3550 0    50   ~ 0
GND
Text Notes 1050 3450 0    50   ~ 0
Sync
Text Notes 1050 3350 0    50   ~ 0
Blue
Text Notes 1050 3250 0    50   ~ 0
Green
Text Notes 1050 3150 0    50   ~ 0
Red
Text Label 6600 3300 0    50   ~ 0
Red
Text Label 6550 3600 0    50   ~ 0
Green
Text Label 6550 3950 0    50   ~ 0
Blue
Text Label 6545 4450 0    50   ~ 0
Sync
Text Label 6600 2600 0    50   ~ 0
Blanking
NoConn ~ 3700 3500
NoConn ~ 3700 3600
NoConn ~ 3700 3700
NoConn ~ 3700 3800
NoConn ~ 9255 4955
NoConn ~ 9255 5155
NoConn ~ 10455 3855
NoConn ~ 10455 4055
NoConn ~ 10455 4255
NoConn ~ 10455 4655
NoConn ~ 10455 4855
NoConn ~ 10455 5055
NoConn ~ 9255 3355
NoConn ~ 9255 3155
Wire Wire Line
	3200 2600 3200 2350
Wire Wire Line
	3200 2800 3200 2600
$Comp
L power:PWR_FLAG #FLG0101
U 1 1 5C49D411
P 2850 2350
F 0 "#FLG0101" H 2850 2425 50  0001 C CNN
F 1 "PWR_FLAG" H 2850 2524 50  0000 C CNN
F 2 "" H 2850 2350 50  0001 C CNN
F 3 "~" H 2850 2350 50  0001 C CNN
	1    2850 2350
	1    0    0    -1  
$EndComp
Connection ~ 2600 4755
Connection ~ 3200 4755
Wire Wire Line
	3200 4400 3200 4755
$Comp
L power:PWR_FLAG #FLG0102
U 1 1 5C4AC553
P 2835 5130
F 0 "#FLG0102" H 2835 5205 50  0001 C CNN
F 1 "PWR_FLAG" H 2835 5303 50  0000 C CNN
F 2 "" H 2835 5130 50  0001 C CNN
F 3 "~" H 2835 5130 50  0001 C CNN
	1    2835 5130
	-1   0    0    1   
$EndComp
$Comp
L power:GND #PWR0101
U 1 1 5C4B37D1
P 3200 5050
F 0 "#PWR0101" H 3200 4800 50  0001 C CNN
F 1 "GND" H 3205 4877 50  0000 C CNN
F 2 "" H 3200 5050 50  0001 C CNN
F 3 "" H 3200 5050 50  0001 C CNN
	1    3200 5050
	1    0    0    -1  
$EndComp
Wire Wire Line
	2600 4755 3200 4755
Wire Wire Line
	2835 5045 3200 5045
Wire Wire Line
	3200 4755 3200 5045
Wire Wire Line
	2835 5045 2835 5130
Connection ~ 2835 5130
Wire Wire Line
	2835 5130 2835 5135
Connection ~ 3200 5045
Wire Wire Line
	3200 5045 3200 5050
Wire Wire Line
	2150 2600 3200 2600
Wire Wire Line
	2850 2350 3200 2350
Connection ~ 3200 2350
$Comp
L Device:R R8
U 1 1 5C461E29
P 4660 4550
F 0 "R8" H 4660 4700 50  0000 L CNN
F 1 "75R" V 4660 4500 50  0000 L CNN
F 2 "Resistor_THT:R_Axial_DIN0207_L6.3mm_D2.5mm_P7.62mm_Horizontal" V 4590 4550 50  0001 C CNN
F 3 "~" H 4660 4550 50  0001 C CNN
	1    4660 4550
	1    0    0    -1  
$EndComp
$Comp
L Device:R R5
U 1 1 5C461CE5
P 4190 4550
F 0 "R5" H 4190 4700 50  0000 L CNN
F 1 "75R" V 4190 4500 50  0000 L CNN
F 2 "Resistor_THT:R_Axial_DIN0207_L6.3mm_D2.5mm_P7.62mm_Horizontal" V 4120 4550 50  0001 C CNN
F 3 "~" H 4190 4550 50  0001 C CNN
	1    4190 4550
	1    0    0    -1  
$EndComp
Wire Wire Line
	3200 4755 4190 4755
Wire Wire Line
	4190 4700 4190 4755
Wire Wire Line
	4150 3400 4190 3400
Wire Wire Line
	4190 4400 4190 3400
Connection ~ 4190 3400
Wire Wire Line
	4190 3400 4775 3400
Wire Wire Line
	4500 3200 5100 3200
Wire Wire Line
	4150 3100 4660 3100
Wire Wire Line
	4660 3100 5570 3100
Connection ~ 4660 3100
Wire Wire Line
	4775 3400 4775 4250
$Comp
L Connector_Generic:Conn_01x02 J13
U 1 1 5C486D33
P 8675 2270
F 0 "J13" V 8725 2110 50  0000 R TNN
F 1 "Aspect Ratio" V 8755 2171 50  0000 L CNN
F 2 "Connector_PinHeader_2.54mm:PinHeader_1x02_P2.54mm_Vertical" H 8675 2270 50  0001 C CNN
F 3 "~" H 8675 2270 50  0001 C CNN
	1    8675 2270
	0    -1   -1   0   
$EndComp
Wire Wire Line
	3200 2600 3200 2585
$Comp
L Connector_Generic:Conn_01x02 J14
U 1 1 5C49C8BC
P 1450 4560
F 0 "J14" H 1370 4235 50  0000 C CNN
F 1 "Power" H 1370 4326 50  0000 C CNN
F 2 "Connector_PinHeader_2.54mm:PinHeader_1x02_P2.54mm_Vertical" H 1450 4560 50  0001 C CNN
F 3 "~" H 1450 4560 50  0001 C CNN
	1    1450 4560
	-1   0    0    -1  
$EndComp
Wire Wire Line
	1770 4660 1650 4660
Wire Wire Line
	1645 4560 1650 4560
Wire Wire Line
	1770 4560 1770 2600
Wire Wire Line
	1770 2600 2150 2600
Wire Wire Line
	2150 2600 2155 2600
Connection ~ 1650 4560
Wire Wire Line
	1650 4560 1770 4560
Connection ~ 2150 2600
Text Notes 1075 4640 0    50   ~ 0
Power
Wire Wire Line
	8675 2470 6135 2465
Wire Wire Line
	8775 2470 10680 2470
Wire Wire Line
	10680 2470 10680 4455
Wire Wire Line
	3200 2600 5170 2600
Wire Wire Line
	5170 4050 5170 2600
Connection ~ 5170 2600
Wire Wire Line
	5170 2600 5365 2600
Wire Wire Line
	5365 3550 5365 2600
Connection ~ 5365 2600
Wire Wire Line
	5365 2600 5625 2600
$Comp
L Transistor_BJT:BC548 Q4
U 1 1 5C45DB83
P 5770 3100
F 0 "Q4" H 5961 3146 50  0000 L CNN
F 1 "BC548" H 5961 3055 50  0000 L CNN
F 2 "modified footprints:TO-92_Inline" H 5970 3025 50  0001 L CIN
F 3 "http://www.fairchildsemi.com/ds/BC/BC547.pdf" H 5770 3100 50  0001 L CNN
	1    5770 3100
	1    0    0    -1  
$EndComp
Wire Wire Line
	5625 3200 5625 2600
Connection ~ 5625 2600
Wire Wire Line
	5625 2600 5870 2600
Wire Wire Line
	5870 2900 5870 2600
Connection ~ 5870 2600
Wire Wire Line
	5870 2600 6135 2600
$Comp
L Device:R R11
U 1 1 5C471254
P 6300 3600
F 0 "R11" V 6200 3750 50  0000 C CNN
F 1 "68R" V 6300 3600 50  0000 C CNN
F 2 "Resistor_THT:R_Axial_DIN0207_L6.3mm_D2.5mm_P7.62mm_Horizontal" V 6230 3600 50  0001 C CNN
F 3 "~" H 6300 3600 50  0001 C CNN
	1    6300 3600
	0    1    1    0   
$EndComp
Wire Wire Line
	6450 3600 7000 3600
$Comp
L Device:R R23
U 1 1 5C51AD8D
P 7100 3500
F 0 "R23" H 7170 3546 50  0000 L CNN
F 1 "zero" V 7090 3410 50  0000 L CNN
F 2 "Resistor_THT:R_Axial_DIN0207_L6.3mm_D2.5mm_P7.62mm_Horizontal" V 7030 3500 50  0001 C CNN
F 3 "~" H 7100 3500 50  0001 C CNN
	1    7100 3500
	1    0    0    -1  
$EndComp
Wire Wire Line
	7100 3650 7100 3750
Wire Wire Line
	7100 3300 7100 3350
Wire Wire Line
	6135 2465 6135 2600
Connection ~ 6135 2600
Wire Wire Line
	6135 2600 6150 2600
Wire Wire Line
	5365 3950 6150 3950
Wire Wire Line
	5625 3600 6150 3600
Wire Wire Line
	5870 3300 6240 3300
Wire Wire Line
	4660 3100 4660 4400
Wire Wire Line
	4500 3200 4500 4400
Wire Wire Line
	4360 3300 4360 4400
Wire Wire Line
	4870 4250 4775 4250
Text Label 6560 4755 0    50   ~ 0
GND
Wire Wire Line
	6445 4450 6450 4450
Wire Wire Line
	6795 4350 6800 4350
Wire Wire Line
	6800 4350 6800 4450
Wire Wire Line
	6800 4450 6450 4450
Connection ~ 6800 4350
Connection ~ 6450 4450
Connection ~ 2150 4755
Wire Wire Line
	1770 4660 1770 4755
Wire Wire Line
	1765 4755 1770 4755
Connection ~ 1770 4755
Wire Wire Line
	1770 4755 2150 4755
Wire Wire Line
	4190 4755 4360 4755
Connection ~ 4190 4755
Wire Wire Line
	4360 4700 4360 4755
Connection ~ 4360 4755
Wire Wire Line
	4360 4755 4500 4755
Wire Wire Line
	4500 4700 4500 4755
Connection ~ 4500 4755
Wire Wire Line
	4500 4755 4660 4755
Wire Wire Line
	4660 4700 4660 4755
Connection ~ 4660 4755
Wire Wire Line
	10550 3655 10455 3655
Wire Wire Line
	10550 2600 10550 3655
Wire Wire Line
	10455 4455 10680 4455
Wire Wire Line
	10270 3505 10270 5340
Wire Wire Line
	10270 3505 10480 3505
$Comp
L Connector:SCART-F J2
U 1 1 5C4751FC
P 9855 4155
F 0 "J2" H 9855 5575 50  0000 C CNN
F 1 "SCART-F" H 9855 5484 50  0000 C CNN
F 2 "w_conn_av:SCART" H 9855 4205 50  0001 C CNN
F 3 " ~" H 9855 4205 50  0001 C CNN
	1    9855 4155
	1    0    0    -1  
$EndComp
Wire Wire Line
	10480 3455 10480 3505
Wire Wire Line
	10480 3455 10455 3455
Wire Wire Line
	7050 4755 7050 5340
Wire Wire Line
	7045 5340 7050 5340
Connection ~ 7050 5340
Wire Wire Line
	7050 5340 10270 5340
Wire Wire Line
	7050 4350 7050 4755
Wire Wire Line
	4660 4755 7050 4755
Connection ~ 7050 4755
Wire Wire Line
	7050 4755 9255 4755
Connection ~ 2150 4000
Wire Wire Line
	2150 4000 2150 4755
Wire Wire Line
	2150 4000 2700 4000
$Comp
L Mechanical:MountingHole H1
U 1 1 5C59C9D9
P 715 5155
F 0 "H1" H 815 5201 50  0000 L CNN
F 1 "MountingHole" H 815 5110 50  0000 L CNN
F 2 "MountingHole:MountingHole_3mm" H 715 5155 50  0001 C CNN
F 3 "~" H 715 5155 50  0001 C CNN
	1    715  5155
	1    0    0    -1  
$EndComp
$Comp
L Mechanical:MountingHole H2
U 1 1 5C59CAF1
P 1145 2025
F 0 "H2" H 1245 2071 50  0000 L CNN
F 1 "MountingHole" H 1245 1980 50  0000 L CNN
F 2 "MountingHole:MountingHole_3mm" H 1145 2025 50  0001 C CNN
F 3 "~" H 1145 2025 50  0001 C CNN
	1    1145 2025
	1    0    0    -1  
$EndComp
$Comp
L Mechanical:MountingHole H4
U 1 1 5C59D10B
P 10595 5715
F 0 "H4" H 10695 5761 50  0000 L CNN
F 1 "MountingHole" H 10695 5670 50  0000 L CNN
F 2 "MountingHole:MountingHole_3mm" H 10595 5715 50  0001 C CNN
F 3 "~" H 10595 5715 50  0001 C CNN
	1    10595 5715
	1    0    0    -1  
$EndComp
$Comp
L Mechanical:MountingHole H3
U 1 1 5C59D224
P 10580 1740
F 0 "H3" H 10680 1786 50  0000 L CNN
F 1 "MountingHole" H 10680 1695 50  0000 L CNN
F 2 "MountingHole:MountingHole_3mm" H 10580 1740 50  0001 C CNN
F 3 "~" H 10580 1740 50  0001 C CNN
	1    10580 1740
	1    0    0    -1  
$EndComp
$EndSCHEMATC
